{
	"@type": "UploadConfigImportExportView",
	"apiKey": "LTS.dataloader.BoxLoader",
	"displayName": "LTS Box Loader",
	"helpText": "",
	"failOnRowErrors": "NONE",
	"debug": true,
	"restricted": false,
	"roles": [{
		"name": "Administrator"
	}, {
		"name": "Data Manager"
	}, {
		"name": "LTS Test Facility Storage"
	}, {
		"name": "LTS Valencia Storage"
	}, {
		"name": "LTS Edinburgh Storage"
	}],
	"uiLocations": ["UPLOAD_MENU"],
	"extractor": {
		"@type": "Default",
		"uploadProcedure": {
			"operator": {
				"@type": "Querier",
				"validationResources": [{
					"@type": "Folder",
					"name": "Box Create Validations",
					"path": "Shared/Data Loading/LTS Specific/Validations/"
				}],
				"procedures": [{
					"@type": "Query",
					"queryConfig": {
						"@type": "Query",
						"name": "LTS Box Create",
						"path": "Shared/Data Loading/LTS Specific/Conditioners/Biomaterial/"
					},
					"procedure": {
						"operator": {
							"@type": "Loader",
							"loader": {
								"type": "STANDARD",
								"apiKey": "Storage Containers"
							},
							"parameters": [{
								"name": "Facility",
								"prompt": "Load storage containers into this facility",
								"promptUser": true
							}, {
								"name": "Storage Container Key",
								"prompt": "Find existing Storage Container records to update by",
								"defaultValue": "None (all Storage Container records are new)",
								"promptUser": false
							}, {
								"name": "Parent Storage Container Key",
								"prompt": "Link new Storage Containers to parent Storage Container records by",
								"defaultValue": "Parent Storage Container ID",
								"promptUser": false
							}, {
								"name": "Change Parent Storage Container",
								"prompt": "Allow changes to parent Storage Container",
								"defaultValue": "No",
								"promptUser": false
							}, {
								"name": "StorageValidation",
								"prompt": "Run Storage validation queries",
								"defaultValue": "false",
								"promptUser": false
							}]
						},
						"destinationName": "Storage Containers Box Create"
					}
				}],
				"dataSource": {
					"name": "STAGING - Storage Container"
				}
			}
		},
		"columnAllowlist": "",
		"maxAllowedLines": 10
	},
	"templateFile": {
		"fileName": "Box Loader Template.xlsx"
	},
	"useSpecifiedDateTimeFormat": false,
	"submenuPath": "Biomaterial",
	"templateFileExport": {
		"originalFileName": "Box Loader Template.xlsx",
		"referenceFileName": "LTS Box Loader-LTS.dataloader.BoxLoader.template.xlsx"
	}
}