{
	"@type": "UploadConfigImportExportView",
	"apiKey": "LTS.dataloader.SampleTrackingCodes",
	"displayName": "LTS Sample Tracking Codes Loader",
	"helpText": "",
	"failOnRowErrors": "NONE",
	"debug": true,
	"restricted": false,
	"roles": [{
		"name": "Data Manager"
	}],
	"uiLocations": ["UPLOAD_MENU"],
	"extractor": {
		"@type": "Default",
		"uploadProcedure": {
			"transformations": [{
				"@type": "Column Transformer",
				"steps": [{
					"oldColumnName": "Study",
					"newColumnName": "Study Number",
					"stepType": "RENAME"
				}]
			}],
			"operator": {
				"@type": "Querier",
				"validationResources": [{
					"@type": "Query",
					"name": "Study - 01 - DLVAL - 5109 - Study Number - Invalid (White Space)",
					"path": "Shared/Data Loading/Validations/Study/",
					"apiKey": "labmatrix.slc.Study.DLVAL.5109"
				}, {
					"@type": "Query",
					"name": "Study - 01 - DLVAL - 5110 - Study Number - Required",
					"path": "Shared/Data Loading/Validations/Study/",
					"apiKey": "labmatrix.slc.Study.DLVAL.5110"
				}, {
					"@type": "Query",
					"name": "Study - 01 - DLVAL - 5114 - Duplicate Study Name Trans",
					"path": "Shared/Data Loading/Validations/Study/",
					"apiKey": "labmatrix.slc.Study.DLVAL.5114"
				}, {
					"@type": "Query",
					"name": "LTS specific STC AP Sample Validation",
					"path": "Shared/Data Loading/LTS Specific/Validations/"
				}, {
					"@type": "Query",
					"name": "LTS specific STC Biomaterial Type Validation",
					"path": "Shared/Data Loading/LTS Specific/Validations/"
				}, {
					"@type": "Query",
					"name": "LTS specific STC Container Type Validation",
					"path": "Shared/Data Loading/LTS Specific/Validations/"
				}, {
					"@type": "Query",
					"name": "LTS specific STC Obsolete Validation",
					"path": "Shared/Data Loading/LTS Specific/Validations/"
				}, {
					"@type": "Query",
					"name": "LTS specific STC Storage Temp Validation",
					"path": "Shared/Data Loading/LTS Specific/Validations/"
				}, {
					"@type": "Query",
					"name": "LTS specific STC Study Validation",
					"path": "Shared/Data Loading/LTS Specific/Validations/"
				}],
				"procedures": [{
					"@type": "Query",
					"queryConfig": {
						"@type": "Query",
						"name": "LTS Sample Tracking Codes - Create and Update",
						"path": "Shared/Data Loading/LTS Specific/Conditioners/Study/"
					},
					"procedure": {
						"operator": {
							"@type": "Loader",
							"loader": {
								"type": "FORM",
								"form": {
									"formExternalId": "Study Sample Tracking Code",
									"name": "Study Sample Tracking Code"
								}
							},
							"parameters": [{
								"name": "Form Key",
								"prompt": "Find existing records by",
								"defaultValue": "Record External ID and Source",
								"promptUser": false
							}, {
								"name": "Change Linked Record",
								"prompt": "Allow changes to associated Study",
								"defaultValue": "Yes",
								"promptUser": false
							}, {
								"name": "FormValidation",
								"prompt": "Run Form validation queries",
								"defaultValue": "true",
								"promptUser": false
							}, {
								"name": "FormCalculation",
								"prompt": "Run Form calculation queries",
								"defaultValue": "true",
								"promptUser": false
							}]
						},
						"destinationName": "Study Sample Tracking Code"
					}
				}, {
					"@type": "Query",
					"queryConfig": {
						"@type": "Query",
						"name": "LTS Sample Tracking Codes - Detail Loader",
						"path": "Shared/Data Loading/LTS Specific/Conditioners/Study/"
					},
					"procedure": {
						"operator": {
							"@type": "Loader",
							"loader": {
								"type": "FORM",
								"form": {
									"formExternalId": "LTS Sample Tracking Code Detail",
									"name": "LTS Sample Tracking Code Detail"
								}
							},
							"parameters": [{
								"name": "Form Key",
								"prompt": "Find existing records by",
								"defaultValue": "Record External ID and Source",
								"promptUser": false
							}, {
								"name": "Change Linked Record",
								"prompt": "Allow changes to associated Study",
								"defaultValue": "Yes",
								"promptUser": false
							}, {
								"name": "FormValidation",
								"prompt": "Run Form validation queries",
								"defaultValue": "true",
								"promptUser": false
							}, {
								"name": "FormCalculation",
								"prompt": "Run Form calculation queries",
								"defaultValue": "true",
								"promptUser": false
							}]
						},
						"destinationName": "LTS Sample Tracking Code Detail"
					}
				}],
				"dataSource": {
					"name": "STAGING - Study"
				}
			}
		},
		"columnAllowlist": "",
		"maxAllowedLines": 10
	},
	"templateFile": {
		"fileName": "Sampe Tracking Code Template.xlsx"
	},
	"useSpecifiedDateTimeFormat": false,
	"submenuPath": "Study",
	"templateFileExport": {
		"originalFileName": "Sampe Tracking Code Template.xlsx",
		"referenceFileName": "LTS Sample Tracking Codes Loader-LTS.dataloader.SampleTrackingCodes.template.xlsx"
	}
}