{
	"@type": "UploadConfigImportExportView",
	"displayName": "LTS Unopened Storage Create",
	"helpText": "",
	"failOnRowErrors": "NONE",
	"debug": true,
	"restricted": false,
	"roles": [{
		"name": "Intake Creator"
	}],
	"uiLocations": ["UPLOAD_MENU"],
	"extractor": {
		"@type": "Default",
		"uploadProcedure": {
			"transformations": [{
				"@type": "Column Transformer",
				"steps": [{
					"oldColumnName": "Study",
					"newColumnName": "Study Number",
					"stepType": "RENAME"
				}, {
					"oldColumnName": "Subject",
					"newColumnName": "Subject ID",
					"stepType": "RENAME"
				}, {
					"oldColumnName": "Visit Name",
					"newColumnName": "Visit",
					"stepType": "RENAME"
				}, {
					"oldColumnName": "Accession ID",
					"newColumnName": "Requisition Number",
					"stepType": "RENAME"
				}]
			}, {
				"@type": "Collapse Duplicates"
			}, {
				"@type": "Column Transformer",
				"steps": [{
					"oldColumnName": "Ship Temp to Q2",
					"newColumnName": "Expected Received Temp",
					"stepType": "RENAME"
				}, {
					"oldColumnName": "Outbound Ship Temp from Q2",
					"newColumnName": "Ship Temp",
					"stepType": "RENAME"
				}, {
					"oldColumnName": "Container ID",
					"newColumnName": "External Container ID",
					"stepType": "RENAME"
				}, {
					"oldColumnName": "Position",
					"newColumnName": "External Container Position",
					"stepType": "RENAME"
				}, {
					"oldColumnName": "Biomaterial Type",
					"newColumnName": "Sample Type",
					"stepType": "RENAME"
				}, {
					"oldColumnName": "Assay",
					"newColumnName": "Assay Type",
					"stepType": "RENAME"
				}, {
					"newColumnName": "Facility",
					"stepType": "PROMPT_ADD"
				}]
			}],
			"operator": {
				"@type": "Querier",
				"procedures": [{
					"@type": "Query",
					"queryConfig": {
						"@type": "Query",
						"name": "LTS Unopened Create",
						"path": "Shared/Data Loading/LTS Specific/Conditioners/Biomaterial/"
					},
					"procedure": {
						"operator": {
							"@type": "Loader",
							"loader": {
								"type": "STANDARD",
								"apiKey": "Storage Containers"
							},
							"parameters": [{
								"name": "Facility",
								"prompt": "Load storage containers into this facility",
								"promptUser": true
							}, {
								"name": "Storage Container Key",
								"prompt": "Find existing Storage Container records to update by",
								"defaultValue": "External ID and Source",
								"promptUser": false
							}, {
								"name": "Parent Storage Container Key",
								"prompt": "Link new Storage Containers to parent Storage Container records by",
								"defaultValue": "Parent Storage Container External ID and Source",
								"promptUser": false
							}, {
								"name": "Change Parent Storage Container",
								"prompt": "Allow changes to parent Storage Container",
								"defaultValue": "No",
								"promptUser": false
							}, {
								"name": "StorageValidation",
								"prompt": "Run Storage validation queries",
								"defaultValue": "false",
								"promptUser": false
							}]
						},
						"destinationName": "Storage Containers"
					}
				}],
				"dataSource": {
					"name": "STAGING - Biomaterial"
				},
				"queryCacheSettings": {
					"name": "Biomaterial - 02 - DLCAC - 5000 - DataLoader Conditioning Query"
				}
			}
		},
		"columnAllowlist": "",
		"maxAllowedLines": 10
	},
	"templateFile": {
		"fileName": "LTS Unopened Boxes Template.xlsx"
	},
	"useSpecifiedDateTimeFormat": false,
	"submenuPath": "Biomaterial",
	"templateFileExport": {
		"originalFileName": "LTS Unopened Boxes Template.xlsx",
		"referenceFileName": "LTS Unopened Storage Create.template.xlsx"
	}
}