{
	"@type": "UploadConfigImportExportView",
	"apiKey": "LTS.dataloader.Biomaterial.UnopenedBoxes",
	"displayName": "LTS Unopened Boxes Biomaterial Loader",
	"helpText": "<p><u>Create new Biomaterial Data or update existing Biomaterial Data.</u></p> \n<ul style=\"list-style-type: disc;\"> \n <p>Create: If Sample ID does not match an existing Biomaterial, a new Biomaterial will be created.</p> \n</ul> \n<ul style=\"list-style-type: disc;\"> \n <p>Update: If Sample ID matches an existing Biomaterial, the existing Biomaterial Data will be updated with the information in the uploaded file.</p> \n <p></p> \n</ul> \n<p style=\"font-weight: bold;\">Only one row per Sample ID is expected.</p>",
	"failOnRowErrors": "ALL",
	"debug": true,
	"restricted": false,
	"roles": [{
		"name": "Intake Creator"
	}],
	"uiLocations": ["UPLOAD_MENU", "INTAKE_MENU"],
	"extractor": {
		"@type": "Default",
		"uploadProcedure": {
			"transformations": [{
				"@type": "Column Transformer",
				"steps": [{
					"oldColumnName": "Study",
					"newColumnName": "Study Number",
					"stepType": "RENAME"
				}, {
					"oldColumnName": "Subject",
					"newColumnName": "Subject ID",
					"stepType": "RENAME"
				}, {
					"oldColumnName": "Visit Name",
					"newColumnName": "Visit",
					"stepType": "RENAME"
				}, {
					"oldColumnName": "Accession ID",
					"newColumnName": "Requisition Number",
					"stepType": "RENAME"
				}]
			}, {
				"@type": "Collapse Duplicates"
			}, {
				"@type": "Column Transformer",
				"steps": [{
					"oldColumnName": "Ship Temp to Q2",
					"newColumnName": "Expected Received Temp",
					"stepType": "RENAME"
				}, {
					"oldColumnName": "Outbound Ship Temp from Q2",
					"newColumnName": "Ship Temp",
					"stepType": "RENAME"
				}, {
					"oldColumnName": "Container ID",
					"newColumnName": "External Container ID",
					"stepType": "RENAME"
				}, {
					"oldColumnName": "Position",
					"newColumnName": "External Container Position",
					"stepType": "RENAME"
				}, {
					"oldColumnName": "Biomaterial Type",
					"newColumnName": "Sample Type",
					"stepType": "RENAME"
				}, {
					"oldColumnName": "Assay",
					"newColumnName": "Assay Type",
					"stepType": "RENAME"
				}]
			}],
			"operator": {
				"@type": "Querier",
				"validationResources": [{
					"@type": "Query",
					"name": "Biomaterial - 01 - DLVAL - 5101 - Sample ID - Required",
					"path": "Shared/Data Loading/Validations/Biomaterial/",
					"apiKey": "labmatrix.slc.Biomaterial.DLVAL.5101"
				}, {
					"@type": "Query",
					"name": "Biomaterial - 01 - DLVAL - 5102 - Study Number - Required",
					"path": "Shared/Data Loading/Validations/Biomaterial/",
					"apiKey": "labmatrix.slc.Biomaterial.DLVAL.5102"
				}, {
					"@type": "Query",
					"name": "Biomaterial - 01 - DLVAL - 5103 - Subject ID - Required",
					"path": "Shared/Data Loading/Validations/Biomaterial/",
					"apiKey": "labmatrix.slc.Biomaterial.DLVAL.5103"
				}, {
					"@type": "Query",
					"name": "Biomaterial - 01 - DLVAL - 5108 - Vendor - Valid",
					"path": "Shared/Data Loading/Validations/Biomaterial/",
					"apiKey": "labmatrix.slc.Biomaterial.DLVAL.5108"
				}, {
					"@type": "Query",
					"name": "Biomaterial - 01 - DLVAL - 5104 - Duplicate Facilities Trans - Created By Facility",
					"path": "Shared/Data Loading/Validations/Biomaterial/",
					"apiKey": "labmatrix.slc.Biomaterial.DLVAL.5104"
				}, {
					"@type": "Query",
					"name": "Biomaterial - 01 - DLVAL - 5105 - Duplicate Facilities Trans - Receiving Facility",
					"path": "Shared/Data Loading/Validations/Biomaterial/",
					"apiKey": "labmatrix.slc.Biomaterial.DLVAL.5105"
				}, {
					"@type": "Query",
					"name": "Biomaterial - 01 - DLVAL - 5106 - Duplicate Facilities Trans - Shipping Facility",
					"path": "Shared/Data Loading/Validations/Biomaterial/",
					"apiKey": "labmatrix.slc.Biomaterial.DLVAL.5106"
				}, {
					"@type": "Query",
					"name": "Biomaterial - 01 - DLVAL - 5107 - Duplicate Facilities Trans - Vendor",
					"path": "Shared/Data Loading/Validations/Biomaterial/",
					"apiKey": "labmatrix.slc.Biomaterial.DLVAL.5107"
				}, {
					"@type": "Query",
					"name": "Biomaterial - 01 - DLVAL - 5100 - Final Disposition - Required",
					"path": "Shared/Data Loading/Validations/Biomaterial/",
					"apiKey": "labmatrix.slc.Biomaterial.DLVAL.5100"
				}, {
					"@type": "Query",
					"name": "Biomaterial - 01 - DLVAL - 5112 - Study Number - Valid",
					"path": "Shared/Data Loading/Validations/Biomaterial/",
					"apiKey": "labmatrix.slc.Biomaterial.DLVAL.5112"
				}, {
					"@type": "Query",
					"name": "Biomaterial - 01 - DLVAL - 5116 - Duplicate Study Name Trans",
					"path": "Shared/Data Loading/Validations/Biomaterial/",
					"apiKey": "labmatrix.slc.Biomaterial.DLVAL.5116"
				}, {
					"@type": "Query",
					"name": "Biomaterial - 01 - DLVAL - 5117 - Subject ID - Required for Stub Parent",
					"path": "Shared/Data Loading/Validations/Biomaterial/",
					"apiKey": "labmatrix.slc.Biomaterial.DLVAL.5117"
				}, {
					"@type": "Query",
					"name": "Biomaterial - 01 - DLVAL - 5125 - Subject ID - Multiple Lookup Matches",
					"path": "Shared/Data Loading/Validations/Biomaterial/",
					"apiKey": "labmatrix.slc.Biomaterial.DLVAL.5125"
				}, {
					"@type": "Query",
					"name": "Biomaterial - 01 - DLVAL - 5126 - Subject ID - Alt ID Conflicts",
					"path": "Shared/Data Loading/Validations/Biomaterial/",
					"apiKey": "labmatrix.slc.Biomaterial.DLVAL.5126"
				}, {
					"@type": "Query",
					"name": "LTS specific Appropriate Expected Received Temp Validation",
					"path": "Shared/Data Loading/LTS Specific/Validations/"
				}, {
					"@type": "Query",
					"name": "LTS specific Appropriate Sample Type Validation",
					"path": "Shared/Data Loading/LTS Specific/Validations/"
				}, {
					"@type": "Query",
					"name": "LTS specific Appropriate Storage Temp Validation",
					"path": "Shared/Data Loading/LTS Specific/Validations/"
				}, {
					"@type": "Query",
					"name": "LTS specific Future Collection Date Validation",
					"path": "Shared/Data Loading/LTS Specific/Validations/"
				}, {
					"@type": "Query",
					"name": "LTS specific Storage Temp Required Validation",
					"path": "Shared/Data Loading/LTS Specific/Validations/"
				}, {
					"@type": "Query",
					"name": "LTS specific Study Status Validation",
					"path": "Shared/Data Loading/LTS Specific/Validations/"
				}, {
					"@type": "Query",
					"name": "LTS specific External Container ID Required Validation",
					"path": "Shared/Data Loading/LTS Specific/Validations/"
				}, {
					"@type": "Query",
					"name": "LTS specific Expected Received Temp Required Validation",
					"path": "Shared/Data Loading/LTS Specific/Validations/"
				}, {
					"@type": "Query",
					"name": "LTS specific Container Type Required Validation",
					"path": "Shared/Data Loading/LTS Specific/Validations/"
				}, {
					"@type": "Query",
					"name": "LTS specific Collection Time Required Validation",
					"path": "Shared/Data Loading/LTS Specific/Validations/"
				}, {
					"@type": "Query",
					"name": "LTS specific Biomaterial Type Required Validation",
					"path": "Shared/Data Loading/LTS Specific/Validations/"
				}, {
					"@type": "Query",
					"name": "LTS specific Appropriate Container Type Validation",
					"path": "Shared/Data Loading/LTS Specific/Validations/"
				}, {
					"@type": "Query",
					"name": "LTS specific Gender Required Validation",
					"path": "Shared/Data Loading/LTS Specific/Validations/"
				}, {
					"@type": "Query",
					"name": "LTS specific Sample Tracking Code Required Validation",
					"path": "Shared/Data Loading/LTS Specific/Validations/"
				}, {
					"@type": "Query",
					"name": "LTS specific Existing Sample Validation",
					"path": "Shared/Data Loading/LTS Specific/Validations/"
				}, {
					"@type": "Query",
					"name": "LTS specific Appropriate AP Sample Validation",
					"path": "Shared/Data Loading/LTS Specific/Validations/"
				}, {
					"@type": "Query",
					"name": "LTS specific Appropriate Date of Birth Validation",
					"path": "Shared/Data Loading/LTS Specific/Validations/"
				}, {
					"@type": "Folder",
					"name": "Unopened Boxes Validations",
					"path": "Shared/Data Loading/LTS Specific/Validations/"
				}],
				"procedures": [{
					"@type": "Query",
					"queryConfig": {
						"@type": "Query",
						"name": "LTS Unopened Sample Tracking Codes - Create and Update",
						"path": "Shared/Data Loading/LTS Specific/Conditioners/Study/"
					},
					"procedure": {
						"operator": {
							"@type": "Loader",
							"loader": {
								"type": "FORM",
								"form": {
									"formExternalId": "Study Sample Tracking Code",
									"name": "Study Sample Tracking Code"
								}
							},
							"parameters": [{
								"name": "Form Key",
								"prompt": "Find existing records by",
								"defaultValue": "Record External ID and Source",
								"promptUser": false
							}, {
								"name": "Change Linked Record",
								"prompt": "Allow changes to associated Study",
								"defaultValue": "Yes",
								"promptUser": false
							}, {
								"name": "FormValidation",
								"prompt": "Run Form validation queries",
								"defaultValue": "true",
								"promptUser": false
							}, {
								"name": "FormCalculation",
								"prompt": "Run Form calculation queries",
								"defaultValue": "true",
								"promptUser": false
							}]
						},
						"destinationName": "Study Sample Tracking Code"
					}
				}, {
					"@type": "Query",
					"queryConfig": {
						"@type": "Query",
						"name": "LTS Opened Boxes 5513 Override",
						"path": "Shared/Data Loading/LTS Specific/Conditioners/Biomaterial/"
					},
					"procedure": {
						"operator": {
							"@type": "Loader",
							"loader": {
								"type": "STANDARD",
								"apiKey": "Subjects"
							},
							"parameters": [{
								"name": "Subject Key",
								"prompt": "Find existing Subject records to update by",
								"defaultValue": "Code and Study",
								"promptUser": false
							}]
						},
						"destinationName": "Subjects"
					}
				}, {
					"@type": "Query",
					"queryConfig": {
						"@type": "Query",
						"name": "Biomaterial - 06 - DLCON - 5512 - Subject Detail Stub Creation",
						"path": "Shared/Data Loading/Conditioners/Biomaterial/",
						"apiKey": "labmatrix.slc.Biomaterial.DLCON.5512"
					},
					"procedure": {
						"operator": {
							"@type": "Loader",
							"loader": {
								"type": "FORM",
								"form": {
									"formExternalId": "Subject Detail",
									"name": "Subject Detail"
								}
							},
							"parameters": [{
								"name": "Form Subject Key",
								"prompt": "Find Subject record by",
								"defaultValue": "Subject Code and Study Name",
								"promptUser": false
							}, {
								"name": "Change Linked Record",
								"prompt": "Allow changes to associated Subject",
								"defaultValue": "No",
								"promptUser": false
							}, {
								"name": "FormValidation",
								"prompt": "Run Form validation queries",
								"defaultValue": "true",
								"promptUser": false
							}, {
								"name": "FormCalculation",
								"prompt": "Run Form calculation queries",
								"defaultValue": "true",
								"promptUser": false
							}]
						},
						"destinationName": "Subject Detail"
					}
				}, {
					"@type": "Query",
					"queryConfig": {
						"@type": "Query",
						"name": "Biomaterial - 04 - DLCON - 5536 - Subject Alt ID",
						"path": "Shared/Data Loading/Conditioners/Biomaterial/",
						"apiKey": "labmatrix.slc.Biomaterial.DLCON.5536"
					},
					"procedure": {
						"operator": {
							"@type": "Loader",
							"loader": {
								"type": "FORM",
								"form": {
									"formExternalId": "Subject Secondary ID",
									"name": "Subject Secondary ID"
								}
							},
							"parameters": [{
								"name": "Form Subject Key",
								"prompt": "Find Subject record by",
								"defaultValue": "Subject Code and Study Name",
								"promptUser": false
							}, {
								"name": "Change Linked Record",
								"prompt": "Allow changes to associated Subject",
								"defaultValue": "No",
								"promptUser": false
							}, {
								"name": "FormValidation",
								"prompt": "Run Form validation queries",
								"defaultValue": "true",
								"promptUser": false
							}, {
								"name": "FormCalculation",
								"prompt": "Run Form calculation queries",
								"defaultValue": "true",
								"promptUser": false
							}]
						},
						"destinationName": "Subject Secondary ID"
					}
				}, {
					"@type": "Query",
					"queryConfig": {
						"@type": "Query",
						"name": "Biomaterial - 05 - DLCON - 5533 - Create Stub Parent",
						"path": "Shared/Data Loading/Conditioners/Biomaterial/",
						"apiKey": "labmatrix.slc.Biomaterial.DLCON.5533"
					},
					"procedure": {
						"transformations": [{
							"@type": "Column Transformer",
							"steps": [{
								"oldColumnName": "Biomaterial Visit Name",
								"stepType": "REMOVE"
							}, {
								"oldColumnName": "Subject Visit Name",
								"stepType": "REMOVE"
							}, {
								"oldColumnName": "Data Source",
								"stepType": "REMOVE"
							}, {
								"newColumnName": "Name",
								"delimiterIndex": 1,
								"columnValue": "[Biomaterial External ID]",
								"stepType": "CONCAT"
							}, {
								"oldColumnName": "Biomaterial External ID",
								"newColumnName": "External ID",
								"stepType": "RENAME"
							}, {
								"oldColumnName": "Biomaterial External Source",
								"newColumnName": "External Source",
								"stepType": "RENAME"
							}, {
								"oldColumnName": "Collection Date",
								"stepType": "REMOVE"
							}, {
								"oldColumnName": "Collection Time",
								"stepType": "REMOVE"
							}, {
								"oldColumnName": "Data Source Biomaterial Visit Name",
								"stepType": "REMOVE"
							}]
						}],
						"operator": {
							"@type": "Loader",
							"loader": {
								"type": "STANDARD",
								"apiKey": "Biomaterials"
							},
							"parameters": [{
								"name": "Biomaterial Key",
								"prompt": "Find existing Biomaterial records to update by",
								"defaultValue": "External ID and Source",
								"promptUser": false
							}, {
								"name": "Parent Biomaterial Key",
								"prompt": "Link new Biomaterials to parent Biomaterial records by",
								"defaultValue": "None (no lineage information)",
								"promptUser": false
							}, {
								"name": "Source Subject Key",
								"prompt": "Link new Biomaterials to source Subject records by",
								"defaultValue": "Source Subject Code and Study",
								"promptUser": false
							}, {
								"name": "Change Source Subject",
								"prompt": "Allow changes to source Subject",
								"defaultValue": "No",
								"promptUser": false
							}, {
								"name": "Change Parent Biomaterial",
								"prompt": "Allow changes to parent Biomaterial",
								"defaultValue": "No",
								"promptUser": false
							}, {
								"name": "StorageValidation",
								"prompt": "Run Storage validation queries",
								"defaultValue": "false",
								"promptUser": false
							}]
						},
						"destinationName": "Biomaterials (Parent Stub)"
					}
				}, {
					"@type": "Query",
					"queryConfig": {
						"@type": "Query",
						"name": "Biomaterial - 05 - DLCON - 5533 - Create Stub Parent",
						"path": "Shared/Data Loading/Conditioners/Biomaterial/",
						"apiKey": "labmatrix.slc.Biomaterial.DLCON.5533"
					},
					"procedure": {
						"transformations": [{
							"@type": "Column Transformer",
							"steps": [{
								"oldColumnName": "Subject Code",
								"stepType": "REMOVE"
							}, {
								"oldColumnName": "Study",
								"stepType": "REMOVE"
							}]
						}],
						"operator": {
							"@type": "Loader",
							"loader": {
								"type": "FORM",
								"form": {
									"formExternalId": "Biomaterial Detail",
									"name": "Biomaterial Detail"
								}
							},
							"parameters": [{
								"name": "Form Biomaterial Key",
								"prompt": "Find Biomaterial record by",
								"defaultValue": "Biomaterial External ID and Source",
								"promptUser": false
							}, {
								"name": "Change Linked Record",
								"prompt": "Allow changes to associated Biomaterial",
								"defaultValue": "No",
								"promptUser": false
							}, {
								"name": "FormValidation",
								"prompt": "Run Form validation queries",
								"defaultValue": "true",
								"promptUser": false
							}, {
								"name": "FormCalculation",
								"prompt": "Run Form calculation queries",
								"defaultValue": "true",
								"promptUser": false
							}]
						},
						"destinationName": "Biomaterial Detail (Parent Stub)"
					}
				}, {
					"@type": "Query",
					"queryConfig": {
						"@type": "Query",
						"name": "LTS Opened Boxes 5505 Override",
						"path": "Shared/Data Loading/LTS Specific/Conditioners/Biomaterial/"
					},
					"procedure": {
						"operator": {
							"@type": "Loader",
							"loader": {
								"type": "STANDARD",
								"apiKey": "Biomaterials"
							},
							"parameters": [{
								"name": "Biomaterial Key",
								"prompt": "Find existing Biomaterial records to update by",
								"defaultValue": "External ID and Source",
								"promptUser": false
							}, {
								"name": "Parent Biomaterial Key",
								"prompt": "Link new Biomaterials to parent Biomaterial records by",
								"defaultValue": "Parent Biomaterial External ID and Source",
								"promptUser": false
							}, {
								"name": "Source Subject Key",
								"prompt": "Link new Biomaterials to source Subject records by",
								"defaultValue": "Source Subject Code and Study",
								"promptUser": false
							}, {
								"name": "Change Source Subject",
								"prompt": "Allow change to source Subject",
								"defaultValue": "Yes",
								"promptUser": false
							}, {
								"name": "Change Parent Biomaterial",
								"prompt": "Allow changes to parent Biomaterial",
								"defaultValue": "Replace Parent",
								"promptUser": false
							}, {
								"name": "StorageValidation",
								"prompt": "Run Storage validation queries",
								"defaultValue": "false",
								"promptUser": false
							}]
						},
						"destinationName": "Biomaterials"
					}
				}, {
					"@type": "Query",
					"queryConfig": {
						"@type": "Query",
						"name": "LTS Unopened Boxes 5506 Override",
						"path": "Shared/Data Loading/LTS Specific/Conditioners/Biomaterial/"
					},
					"procedure": {
						"operator": {
							"@type": "Loader",
							"loader": {
								"type": "FORM",
								"form": {
									"formExternalId": "Biomaterial Detail",
									"name": "Biomaterial Detail"
								}
							},
							"parameters": [{
								"name": "Form Biomaterial Key",
								"prompt": "Find Biomaterial record by",
								"defaultValue": "Biomaterial External ID and Source",
								"promptUser": false
							}, {
								"name": "Change Linked Record",
								"prompt": "Allow changes to associated Biomaterial",
								"defaultValue": "No",
								"promptUser": false
							}, {
								"name": "FormValidation",
								"prompt": "Run Form validation queries",
								"defaultValue": "true",
								"promptUser": false
							}, {
								"name": "FormCalculation",
								"prompt": "Run Form calculation queries",
								"defaultValue": "true",
								"promptUser": false
							}]
						},
						"destinationName": "Biomaterial Detail"
					}
				}, {
					"@type": "Query",
					"queryConfig": {
						"@type": "Query",
						"name": "Biomaterial - 05 - DLCON - 5532 - Parent Inheritance",
						"path": "Shared/Data Loading/Conditioners/Biomaterial/",
						"apiKey": "labmatrix.slc.Biomaterial.DLCON.5532"
					},
					"procedure": {
						"transformations": [{
							"@type": "Column Transformer",
							"steps": [{
								"oldColumnName": "Biomaterial External ID",
								"newColumnName": "External ID",
								"stepType": "RENAME"
							}, {
								"oldColumnName": "Biomaterial External Source",
								"newColumnName": "External Source",
								"stepType": "RENAME"
							}, {
								"oldColumnName": "Assay Type",
								"stepType": "REMOVE"
							}, {
								"oldColumnName": "Sample Tracking Code",
								"stepType": "REMOVE"
							}, {
								"oldColumnName": "Collection Date",
								"stepType": "REMOVE"
							}, {
								"oldColumnName": "Collection Time",
								"stepType": "REMOVE"
							}, {
								"oldColumnName": "Biomaterial Visit Name",
								"stepType": "REMOVE"
							}, {
								"oldColumnName": "Subject Visit Name",
								"stepType": "REMOVE"
							}, {
								"oldColumnName": "Data Source Biomaterial Visit Name",
								"stepType": "REMOVE"
							}]
						}],
						"operator": {
							"@type": "Loader",
							"loader": {
								"type": "STANDARD",
								"apiKey": "Biomaterials"
							},
							"parameters": [{
								"name": "Biomaterial Key",
								"prompt": "Find existing Biomaterial records to update by",
								"defaultValue": "External ID and Source",
								"promptUser": false
							}, {
								"name": "Parent Biomaterial Key",
								"prompt": "Link new Biomaterials to parent Biomaterial records by",
								"defaultValue": "Parent Biomaterial External ID and Source",
								"promptUser": false
							}, {
								"name": "Source Subject Key",
								"prompt": "Link new Biomaterials to source Subject records by",
								"defaultValue": "Source Subject Code and Study",
								"promptUser": false
							}, {
								"name": "Change Source Subject",
								"prompt": "Allow changes to source Subject",
								"defaultValue": "Yes",
								"promptUser": false
							}, {
								"name": "Change Parent Biomaterial",
								"prompt": "Allow changes to parent Biomaterial",
								"defaultValue": "Replace Parent",
								"promptUser": false
							}, {
								"name": "StorageValidation",
								"prompt": "Run Storage validation queries",
								"defaultValue": "false",
								"promptUser": false
							}]
						},
						"destinationName": "Biomaterial (Parent Inheritance)\t"
					}
				}, {
					"@type": "Query",
					"queryConfig": {
						"@type": "Query",
						"name": "Biomaterial - 05 - DLCON - 5532 - Parent Inheritance",
						"path": "Shared/Data Loading/Conditioners/Biomaterial/",
						"apiKey": "labmatrix.slc.Biomaterial.DLCON.5532"
					},
					"procedure": {
						"transformations": [{
							"@type": "Column Transformer",
							"steps": [{
								"oldColumnName": "Subject Code",
								"stepType": "REMOVE"
							}, {
								"oldColumnName": "Name",
								"stepType": "REMOVE"
							}, {
								"oldColumnName": "Study",
								"stepType": "REMOVE"
							}, {
								"oldColumnName": "Type",
								"stepType": "REMOVE"
							}, {
								"oldColumnName": "Container Type",
								"stepType": "REMOVE"
							}, {
								"oldColumnName": "Parent Biomaterial External ID",
								"stepType": "REMOVE"
							}, {
								"oldColumnName": "Parent Biomaterial External Source",
								"stepType": "REMOVE"
							}]
						}],
						"operator": {
							"@type": "Loader",
							"loader": {
								"type": "FORM",
								"form": {
									"formExternalId": "Biomaterial Detail",
									"name": "Biomaterial Detail"
								}
							},
							"parameters": [{
								"name": "Form Biomaterial Key",
								"prompt": "Find Biomaterial record by",
								"defaultValue": "Biomaterial External ID and Source",
								"promptUser": false
							}, {
								"name": "Change Linked Record",
								"prompt": "Allow changes to associated Biomaterial",
								"defaultValue": "No",
								"promptUser": false
							}, {
								"name": "FormValidation",
								"prompt": "Run Form validation queries",
								"defaultValue": "true",
								"promptUser": false
							}, {
								"name": "FormCalculation",
								"prompt": "Run Form calculation queries",
								"defaultValue": "true",
								"promptUser": false
							}]
						},
						"destinationName": "Biomaterial Details (Parent Inheritance)"
					}
				}, {
					"@type": "Query",
					"queryConfig": {
						"@type": "Query",
						"name": "Biomaterial - 07 - DLCON - 5511 - Sample ID Mapping",
						"path": "Shared/Data Loading/Conditioners/Biomaterial/",
						"apiKey": "labmatrix.slc.Biomaterial.DLCON.5511"
					},
					"procedure": {
						"operator": {
							"@type": "Loader",
							"loader": {
								"type": "FORM",
								"form": {
									"formExternalId": "Sample ID Translation",
									"name": "Sample ID Translation"
								}
							},
							"parameters": [{
								"name": "Form Key",
								"prompt": "Find existing records by",
								"defaultValue": "Record External ID and Source",
								"promptUser": false
							}, {
								"name": "Form Biomaterial Key",
								"prompt": "Find Biomaterial record by",
								"defaultValue": "Biomaterial External ID and Source",
								"promptUser": false
							}, {
								"name": "Change Linked Record",
								"prompt": "Allow changes to associated Biomaterial",
								"defaultValue": "No",
								"promptUser": false
							}, {
								"name": "FormValidation",
								"prompt": "Run Form validation queries",
								"defaultValue": "true",
								"promptUser": false
							}, {
								"name": "FormCalculation",
								"prompt": "Run Form calculation queries",
								"defaultValue": "true",
								"promptUser": false
							}]
						},
						"destinationName": "Sample ID Translation"
					}
				}, {
					"@type": "Query",
					"queryConfig": {
						"@type": "Query",
						"name": "Biomaterial - 07 - DLCON - 5509 - Movement Receiving",
						"path": "Shared/Data Loading/Conditioners/Biomaterial/",
						"apiKey": "labmatrix.slc.Biomaterial.DLCON.5509"
					},
					"procedure": {
						"operator": {
							"@type": "Loader",
							"loader": {
								"type": "FORM",
								"form": {
									"formExternalId": "Biomaterial Movement",
									"name": "Biomaterial Movement"
								}
							},
							"parameters": [{
								"name": "Form Key",
								"prompt": "Find existing records by",
								"defaultValue": "Record External ID and Source",
								"promptUser": false
							}, {
								"name": "Form Biomaterial Key",
								"prompt": "Find Biomaterial record by",
								"defaultValue": "Biomaterial External ID and Source",
								"promptUser": false
							}, {
								"name": "Change Linked Record",
								"prompt": "Allow changes to associated Biomaterial",
								"defaultValue": "No",
								"promptUser": false
							}, {
								"name": "FormValidation",
								"prompt": "Run Form validation queries",
								"defaultValue": "true",
								"promptUser": false
							}, {
								"name": "FormCalculation",
								"prompt": "Run Form calculation queries",
								"defaultValue": "true",
								"promptUser": false
							}]
						},
						"destinationName": "Biomaterial Movement - Receiving"
					}
				}, {
					"@type": "Query",
					"queryConfig": {
						"@type": "Query",
						"name": "Biomaterial - 07 - DLCON - 5510 - Movement Shipping",
						"path": "Shared/Data Loading/Conditioners/Biomaterial/",
						"apiKey": "labmatrix.slc.Biomaterial.DLCON.5510"
					},
					"procedure": {
						"operator": {
							"@type": "Loader",
							"loader": {
								"type": "FORM",
								"form": {
									"formExternalId": "Biomaterial Movement",
									"name": "Biomaterial Movement"
								}
							},
							"parameters": [{
								"name": "Form Key",
								"prompt": "Find existing records by",
								"defaultValue": "Record External ID and Source",
								"promptUser": false
							}, {
								"name": "Form Biomaterial Key",
								"prompt": "Find Biomaterial record by",
								"defaultValue": "Biomaterial External ID and Source",
								"promptUser": false
							}, {
								"name": "Change Linked Record",
								"prompt": "Allow changes to associated Biomaterial",
								"defaultValue": "No",
								"promptUser": false
							}, {
								"name": "FormValidation",
								"prompt": "Run Form validation queries",
								"defaultValue": "true",
								"promptUser": false
							}, {
								"name": "FormCalculation",
								"prompt": "Run Form calculation queries",
								"defaultValue": "true",
								"promptUser": false
							}]
						},
						"destinationName": "Biomaterial Movement - Shipping"
					}
				}, {
					"@type": "Query",
					"queryConfig": {
						"@type": "Query",
						"name": "LTS Biomaterial Detail - Create and Update",
						"path": "Shared/Data Loading/LTS Specific/Conditioners/Biomaterial/"
					},
					"procedure": {
						"operator": {
							"@type": "Loader",
							"loader": {
								"type": "FORM",
								"form": {
									"formExternalId": "LTS Biomaterial Detail",
									"name": "LTS Biomaterial Detail"
								}
							},
							"parameters": [{
								"name": "Form Biomaterial Key",
								"prompt": "Find Biomaterial record by",
								"defaultValue": "Biomaterial External ID and Source",
								"promptUser": false
							}, {
								"name": "Change Linked Record",
								"prompt": "Allow changes to associated Biomaterial",
								"defaultValue": "No",
								"promptUser": false
							}, {
								"name": "FormValidation",
								"prompt": "Run Form validation queries",
								"defaultValue": "true",
								"promptUser": false
							}, {
								"name": "FormCalculation",
								"prompt": "Run Form calculation queries",
								"defaultValue": "true",
								"promptUser": false
							}]
						},
						"destinationName": "LTS Biomaterial Detail"
					}
				}, {
					"@type": "Query",
					"queryConfig": {
						"@type": "Query",
						"name": "LTS Unordered Box - Store Samples",
						"path": "Shared/Data Loading/LTS Specific/Conditioners/Biomaterial/"
					},
					"procedure": {
						"operator": {
							"@type": "Loader",
							"loader": {
								"type": "STANDARD",
								"apiKey": "Biomaterial Storage Locations"
							},
							"parameters": [{
								"name": "Biomaterial Key",
								"prompt": "Find Biomaterial records to store by",
								"defaultValue": "Biomaterial External ID and Source",
								"promptUser": false
							}, {
								"name": "StorageValidation",
								"prompt": "Run Storage validation queries",
								"defaultValue": "false",
								"promptUser": false
							}]
						},
						"destinationName": "Biomaterial Storage Locations"
					}
				}, {
					"@type": "Query",
					"queryConfig": {
						"@type": "Query",
						"name": "LTS Unopened Box Update",
						"path": "Shared/Data Loading/LTS Specific/Conditioners/Biomaterial/"
					},
					"procedure": {
						"operator": {
							"@type": "Loader",
							"loader": {
								"type": "STANDARD",
								"apiKey": "Storage Containers"
							},
							"parameters": [{
								"name": "Facility",
								"prompt": "Load storage containers into this facility",
								"promptUser": true
							}, {
								"name": "Storage Container Key",
								"prompt": "Find existing Storage Container records to update by",
								"defaultValue": "External ID and Source",
								"promptUser": false
							}, {
								"name": "Parent Storage Container Key",
								"prompt": "Link new Storage Containers to parent Storage Container records by",
								"defaultValue": "Parent Storage Container External ID and Source",
								"promptUser": false
							}, {
								"name": "Change Parent Storage Container",
								"prompt": "Allow changes to parent Storage Container",
								"defaultValue": "No",
								"promptUser": false
							}, {
								"name": "StorageValidation",
								"prompt": "Run Storage validation queries",
								"defaultValue": "false",
								"promptUser": false
							}]
						},
						"destinationName": "Storage Containers"
					}
				}],
				"dataSource": {
					"name": "STAGING - Biomaterial"
				},
				"queryCacheSettings": {
					"name": "Biomaterial - 02 - DLCAC - 5000 - DataLoader Conditioning Query"
				}
			}
		},
		"columnAllowlist": "Vendor, Study Number, Subject ID, Secondary ID, Visit, Sample ID, Requisition Number, AP Sample, 2D Barcode, Biomaterial Type, Storage Temp, Ship Temp to Q2, Outbound Ship Temp from Q2, Assay, Collection Date, Collection Time, Date of Birth, Gender, Age at Enrollment, Race, Ethnicity, Volume, Volume Unit, Concentration, Concentration Numerator Unit, Concentration Denominator Unit, Mass, Mass Unit, Thaws, Comment, Sample Site, Collection Method, Container Type, Container ID, Position, Site Number, Sample Comment",
		"maxAllowedLines": 10
	},
	"templateFile": {
		"fileName": "LTS Unopened Boxes Template.xlsx"
	},
	"useSpecifiedDateTimeFormat": false,
	"submenuPath": "Biomaterial",
	"templateFileExport": {
		"originalFileName": "LTS Unopened Boxes Template.xlsx",
		"referenceFileName": "LTS Unopened Boxes Biomaterial Loader-LTS.dataloader.Biomaterial.UnopenedBoxes.template.xlsx"
	}
}