{
	"@type": "UploadConfigImportExportView",
	"displayName": "LTS Routing plan Name Loader",
	"helpText": "",
	"failOnRowErrors": "NONE",
	"debug": false,
	"restricted": false,
	"roles": [{
		"name": "Everyone"
	}],
	"extractor": {
		"@type": "Default",
		"uploadProcedure": {
			"operator": {
				"@type": "Loader",
				"loader": {
					"type": "FORM",
					"form": {
						"formExternalId": "LTS Routing plan Names",
						"name": "LTS Routing plan Names"
					}
				},
				"parameters": [{
					"name": "Form Key",
					"prompt": "Find existing records by",
					"defaultValue": "Record External ID and Source",
					"promptUser": false
				}, {
					"name": "FormValidation",
					"prompt": "Run Form validation queries",
					"defaultValue": "false",
					"promptUser": false
				}, {
					"name": "FormCalculation",
					"prompt": "Run Form calculation queries",
					"defaultValue": "false",
					"promptUser": false
				}]
			},
			"destinationName": "LTS Routing plan Names"
		},
		"columnAllowlist": "",
		"maxAllowedLines": 10
	},
	"useSpecifiedDateTimeFormat": false
}