{
	"@type": "CustomDataFormImportExportView",
	"name": "LTS Study Status",
	"type": "STANDALONE",
	"externalId": "LTS Study Status",
	"accessGroupForRecords": "LTS Controlled Vocabularies",
	"useDefault": true,
	"showAttachments": false,
	"allowReadOnlyRecords": false,
	"attachmentsLabel": "Attachments",
	"createSqbDataSource": true,
	"multipleEntries": true,
	"storeComments": true,
	"allowRecordLock": false,
	"allowEditWithoutEntityPerms": false,
	"columnNum": 2,
	"allowManualEntryExternalId": false,
	"showCreateAnother": true,
	"showSaveButton": true,
	"showInDataEntry": true,
	"showInSearch": true,
	"fields": [{
		"name": "Study Status",
		"externalId": "Study Status",
		"commentsDisplayType": "AS_TOOLTIP",
		"containsPHI": false,
		"defaultToCurrent": false,
		"upperBound": "250",
		"addNewValuesToList": true,
		"displayType": {
			"name": "The \"General\" tab"
		},
		"fieldType": "TEXT",
		"required": false,
		"title": false
	}],
	"datasource": {
		"@type": "QiagramDatasourceImportExportView",
		"name": "LTS Study Statuses",
		"isUserIcon": false,
		"autoUpdateInCatalog": false,
		"paletteGroup": "Forms",
		"martName": "MART_EX_FORM_LTS Study Status",
		"fields": [{
			"name": "Study Status",
			"type": {
				"name": "String"
			},
			"size": 250,
			"columnName": "Study Status",
			"modules": "18",
			"isPhi": false,
			"accessGroupIdListColumnName": "access_group_id_list",
			"isCataloged": false,
			"ordinalPosition": 0
		}, {
			"name": "record id",
			"description": "The system-generated record ID.",
			"descriptionHtml": "The system-generated record ID.",
			"type": {
				"name": "Integer"
			},
			"precision": 10,
			"linkEntityClass": "net.labmatrix.beans.CustomDataRecord:89",
			"columnName": "id",
			"idColumnName": "id",
			"modules": "18",
			"isPhi": false,
			"accessGroupIdListColumnName": "access_group_id_list",
			"isCataloged": false,
			"ordinalPosition": 1
		}, {
			"name": "record is read-only",
			"description": "Whether this record is locked, making the record read-only",
			"descriptionHtml": "Whether this record is locked, making the record read-only",
			"type": {
				"name": "Boolean"
			},
			"columnName": "is_locked",
			"modules": "18",
			"isPhi": false,
			"accessGroupIdListColumnName": "access_group_id_list",
			"isCataloged": false,
			"ordinalPosition": 2
		}, {
			"name": "record external id",
			"description": "The legacy ID of this record in the system where it was originally stored.",
			"descriptionHtml": "The legacy ID of this record in the system where it was originally stored.",
			"type": {
				"name": "String"
			},
			"size": 256,
			"columnName": "__external_id",
			"modules": "18",
			"isPhi": false,
			"accessGroupIdListColumnName": "access_group_id_list",
			"isCataloged": false,
			"ordinalPosition": 3
		}, {
			"name": "record external source",
			"description": "The name of the system where this record was originally stored.",
			"descriptionHtml": "The name of the system where this record was originally stored.",
			"type": {
				"name": "String"
			},
			"size": 256,
			"columnName": "__external_source",
			"modules": "18",
			"isPhi": false,
			"accessGroupIdListColumnName": "access_group_id_list",
			"isCataloged": false,
			"ordinalPosition": 4
		}, {
			"name": "record create date",
			"description": "The date this record was created.",
			"descriptionHtml": "The date this record was created.",
			"type": {
				"name": "Datetime"
			},
			"columnName": "record_create_date",
			"modules": "18",
			"isPhi": false,
			"accessGroupIdListColumnName": "access_group_id_list",
			"isCataloged": false,
			"ordinalPosition": 5
		}, {
			"name": "record creator",
			"description": "The user who created this record.",
			"descriptionHtml": "The user who created this record.",
			"type": {
				"name": "String"
			},
			"size": 250,
			"columnName": "record_creator",
			"modules": "18",
			"isPhi": false,
			"accessGroupIdListColumnName": "access_group_id_list",
			"isCataloged": false,
			"ordinalPosition": 6
		}, {
			"name": "record last modified date",
			"description": "The date this record was last modified.",
			"descriptionHtml": "The date this record was last modified.",
			"type": {
				"name": "Datetime"
			},
			"columnName": "record_last_modified_date",
			"modules": "18",
			"isPhi": false,
			"accessGroupIdListColumnName": "access_group_id_list",
			"isCataloged": false,
			"ordinalPosition": 7
		}, {
			"name": "record last modifier",
			"description": "The user who last modified this record.",
			"descriptionHtml": "The user who last modified this record.",
			"type": {
				"name": "String"
			},
			"size": 250,
			"columnName": "record_last_modifier",
			"modules": "18",
			"isPhi": false,
			"accessGroupIdListColumnName": "access_group_id_list",
			"isCataloged": false,
			"ordinalPosition": 8
		}, {
			"name": "batch id",
			"description": "The id of the batch in which this record was uploaded.",
			"descriptionHtml": "The id of the batch in which this record was uploaded.",
			"type": {
				"name": "String"
			},
			"size": 250,
			"columnName": "batch_id",
			"modules": "18",
			"isPhi": false,
			"accessGroupIdListColumnName": "access_group_id_list",
			"isCataloged": false,
			"ordinalPosition": 9
		}, {
			"name": "batch step id",
			"description": "The id of the step of the batch in which this record was uploaded.",
			"descriptionHtml": "The id of the step of the batch in which this record was uploaded.",
			"type": {
				"name": "String"
			},
			"size": 250,
			"columnName": "batch_step_id",
			"modules": "18",
			"isPhi": false,
			"accessGroupIdListColumnName": "access_group_id_list",
			"isCataloged": false,
			"ordinalPosition": 10
		}, {
			"name": "form id",
			"description": "The id of the custom data form.",
			"descriptionHtml": "The id of the custom data form.",
			"type": {
				"name": "Integer"
			},
			"columnName": "form_id",
			"modules": "18",
			"isPhi": false,
			"accessGroupIdListColumnName": "access_group_id_list",
			"isCataloged": false,
			"ordinalPosition": 11
		}, {
			"name": "record attachments",
			"description": "The file attachments associated with this record.",
			"descriptionHtml": "The file attachments associated with this record.",
			"type": {
				"name": "Integer"
			},
			"precision": 10,
			"specialFlags": "ATTACHMENTS_COLLECTION",
			"linkEntityClass": "net.labmatrix.beans.CustomDataRecord:89",
			"columnName": "id",
			"modules": "18",
			"isPhi": false,
			"accessGroupIdListColumnName": "access_group_id_list",
			"isCataloged": false,
			"ordinalPosition": 12
		}],
		"isSnapshot": false,
		"isSorted": true,
		"type": "FORM",
		"accessGroupName": "LTS Controlled Vocabularies"
	},
	"displayForNewRecord": false
}