{
	"@type": "SecurityGroupImportExportView",
	"name": "LTS Controlled Vocabularies",
	"description": "LTS-specific security group for providing access to most LTS-specific controlled vocabularies",
	"grantedPermissions": [{
		"biomaterialPermission": 0,
		"subjectPermission": 0,
		"studyPermission": 0,
		"formAndDatasourcePermission": 4,
		"phi": true,
		"roleName": "LTS Vocabulary Manager"
	}, {
		"biomaterialPermission": 0,
		"subjectPermission": 0,
		"studyPermission": 0,
		"formAndDatasourcePermission": 1,
		"phi": true,
		"roleName": "Everyone"
	}]
}