{
	"@type": "RoleImportExportView",
	"name": "LTS Financial",
	"description": "LTS-specific role intended to provide create/update/delete access to sensitive billing data, as well as ability to view Billing reports"
}